{
  "data": [
    {
      "id": 1,
      "attributes": {
        "title": "Python",
        "createdAt": "2024-07-20T08:20:51.030Z",
        "updatedAt": "2024-07-20T08:25:09.420Z",
        "publishedAt": "2024-07-20T14:21:38.573Z",
        "category": "programmation"
      }
    },
    {
      "id": 2,
      "attributes": {
        "title": "C",
        "createdAt": "2024-07-20T08:25:38.708Z",
        "updatedAt": "2024-07-20T08:25:38.708Z",
        "publishedAt": "2024-07-20T14:18:49.503Z",
        "category": "programmation"
      }
    },
    {
      "id": 3,
      "attributes": {
        "title": "C#",
        "createdAt": "2024-07-20T08:26:00.327Z",
        "updatedAt": "2024-07-20T08:26:00.327Z",
        "publishedAt": "2024-07-20T14:18:49.503Z",
        "category": "programmation"
      }
    },
    {
      "id": 4,
      "attributes": {
        "title": "C++",
        "createdAt": "2024-07-20T08:26:18.550Z",
        "updatedAt": "2024-07-20T08:26:18.550Z",
        "publishedAt": "2024-07-20T14:18:49.503Z",
        "category": "programmation"
      }
    },
    {
      "id": 5,
      "attributes": {
        "title": "Java",
        "createdAt": "2024-07-20T08:26:38.510Z",
        "updatedAt": "2024-07-20T08:26:38.510Z",
        "publishedAt": "2024-07-20T14:21:38.573Z",
        "category": "programmation"
      }
    },
    {
      "id": 6,
      "attributes": {
        "title": "Git",
        "createdAt": "2024-07-20T08:26:56.028Z",
        "updatedAt": "2024-07-20T08:26:56.028Z",
        "publishedAt": "2024-07-20T14:21:38.573Z",
        "category": "programmation"
      }
    },
    {
      "id": 7,
      "attributes": {
        "title": ".NET",
        "createdAt": "2024-07-20T08:27:24.216Z",
        "updatedAt": "2024-07-20T08:27:24.216Z",
        "publishedAt": "2024-07-20T14:18:49.503Z",
        "category": "back-end"
      }
    },
    {
      "id": 8,
      "attributes": {
        "title": "PHP",
        "createdAt": "2024-07-20T08:27:42.947Z",
        "updatedAt": "2024-07-20T08:27:42.947Z",
        "publishedAt": "2024-07-20T14:21:38.573Z",
        "category": "back-end"
      }
    },
    {
      "id": 9,
      "attributes": {
        "title": "Node Red",
        "createdAt": "2024-07-20T08:28:05.157Z",
        "updatedAt": "2024-07-20T08:28:05.157Z",
        "publishedAt": "2024-07-20T14:21:38.573Z",
        "category": "back-end"
      }
    },
    {
      "id": 10,
      "attributes": {
        "title": "NestJS",
        "createdAt": "2024-07-20T08:28:23.800Z",
        "updatedAt": "2024-07-20T08:28:23.800Z",
        "publishedAt": "2024-07-20T14:21:38.573Z",
        "category": "back-end"
      }
    },
    {
      "id": 11,
      "attributes": {
        "title": "NodeJS",
        "createdAt": "2024-07-20T08:28:41.361Z",
        "updatedAt": "2024-07-20T08:28:41.361Z",
        "publishedAt": "2024-07-20T14:21:38.573Z",
        "category": "back-end"
      }
    },
    {
      "id": 12,
      "attributes": {
        "title": "Html",
        "createdAt": "2024-07-20T08:28:59.503Z",
        "updatedAt": "2024-07-20T08:28:59.503Z",
        "publishedAt": "2024-07-20T14:21:38.573Z",
        "category": "front-end"
      }
    },
    {
      "id": 13,
      "attributes": {
        "title": "CSS",
        "createdAt": "2024-07-20T08:29:13.178Z",
        "updatedAt": "2024-07-20T08:29:13.178Z",
        "publishedAt": "2024-07-20T14:18:49.503Z",
        "category": "front-end"
      }
    },
    {
      "id": 14,
      "attributes": {
        "title": "TypeScript",
        "createdAt": "2024-07-20T08:29:36.798Z",
        "updatedAt": "2024-07-20T08:29:36.798Z",
        "publishedAt": "2024-07-20T14:21:38.573Z",
        "category": "front-end"
      }
    },
    {
      "id": 15,
      "attributes": {
        "title": "JavaScript",
        "createdAt": "2024-07-20T08:29:58.387Z",
        "updatedAt": "2024-07-20T08:29:58.387Z",
        "publishedAt": "2024-07-20T14:21:38.573Z",
        "category": "front-end"
      }
    },
    {
      "id": 16,
      "attributes": {
        "title": "Angular",
        "createdAt": "2024-07-20T08:30:21.946Z",
        "updatedAt": "2024-07-20T08:30:21.946Z",
        "publishedAt": "2024-07-20T14:18:49.503Z",
        "category": "front-end"
      }
    },
    {
      "id": 17,
      "attributes": {
        "title": "Ionic",
        "createdAt": "2024-07-20T08:30:35.915Z",
        "updatedAt": "2024-07-20T08:30:35.915Z",
        "publishedAt": "2024-07-20T14:21:38.573Z",
        "category": "front-end"
      }
    },
    {
      "id": 18,
      "attributes": {
        "title": "SQL",
        "createdAt": "2024-07-20T08:31:08.526Z",
        "updatedAt": "2024-07-20T08:31:08.526Z",
        "publishedAt": "2024-07-20T14:21:38.573Z",
        "category": "database"
      }
    },
    {
      "id": 19,
      "attributes": {
        "title": "MongoDB",
        "createdAt": "2024-07-20T08:31:37.831Z",
        "updatedAt": "2024-07-20T08:31:37.831Z",
        "publishedAt": "2024-07-20T14:21:38.573Z",
        "category": "database"
      }
    },
    {
      "id": 20,
      "attributes": {
        "title": "Neo4j",
        "createdAt": "2024-07-20T08:32:09.985Z",
        "updatedAt": "2024-07-20T08:32:09.985Z",
        "publishedAt": "2024-07-20T14:21:38.573Z",
        "category": "database"
      }
    },
    {
      "id": 21,
      "attributes": {
        "title": "Firebase",
        "createdAt": "2024-07-20T08:32:50.986Z",
        "updatedAt": "2024-07-20T08:32:50.986Z",
        "publishedAt": "2024-07-20T14:18:49.503Z",
        "category": "database"
      }
    },
    {
      "id": 22,
      "attributes": {
        "title": "InfluxDB",
        "createdAt": "2024-07-20T08:33:15.066Z",
        "updatedAt": "2024-07-20T08:33:15.066Z",
        "publishedAt": "2024-07-20T14:21:38.573Z",
        "category": "database"
      }
    },
    {
      "id": 23,
      "attributes": {
        "title": "Unity",
        "createdAt": "2024-07-20T08:33:57.754Z",
        "updatedAt": "2024-07-20T08:33:57.754Z",
        "publishedAt": "2024-07-20T14:21:38.573Z",
        "category": "graphics"
      }
    },
    {
      "id": 24,
      "attributes": {
        "title": "JavaFX",
        "createdAt": "2024-07-20T08:34:29.880Z",
        "updatedAt": "2024-07-20T08:34:29.880Z",
        "publishedAt": "2024-07-20T14:21:38.573Z",
        "category": "graphics"
      }
    },
    {
      "id": 25,
      "attributes": {
        "title": "Qt Creator",
        "createdAt": "2024-07-20T08:34:59.390Z",
        "updatedAt": "2024-07-20T08:34:59.390Z",
        "publishedAt": "2024-07-20T14:21:38.573Z",
        "category": "graphics"
      }
    }
  ],
  "meta": {
    "pagination": {
      "page": 1,
      "pageSize": 25,
      "pageCount": 2,
      "total": 28
    }
  }
}